…
```
## Parsed with column specification:
## cols(
##   run_accession = col_character(),
##   sample_alias = col_character()
## )
```

```r
sampleTable
```

```
## # A tibble: 57 x 2
##    run_accession sample_alias
##    <chr>         <chr>       
##  1 ERR649018     PG038-D     
##  2 ERR649019     PG136-N     
##  3 ERR649020     PG049-T     
##  4 ERR649021     PG049-D     
##  5 ERR649022     PG049-N     
##  6 ERR649023     PG063-D     
##  7 ERR649024     PG063-T     
##  8 ERR649025     PG038-T     
##  9 ERR649026     PG063-N     
## 10 ERR649027     PG108-T     
## # ... with 47 more rows
```
…
This is now our final sample table


```r
sampleTable
```

```
## # A tibble: 57 x 4
##    run_accession sample_name patient tissue   
##    <chr>         <chr>       <chr>   <fct>    
##  1 ERR649059     PG004-N     PG004   normal   
##  2 ERR649060     PG004-D     PG004   dysplasia
##  3 ERR649061     PG004-T     PG004   tumour   
##  4 ERR649035     PG038-N     PG038   normal   
##  5 ERR649018     PG038-D     PG038   dysplasia
##  6 ERR649025     PG038-T     PG038   tumour   
##  7 ERR649022     PG049-N     PG049   normal   
##  8 ERR649021     PG049-D     PG049   dysplasia
##  9 ERR649020     PG049-T     PG049   tumour   
## 10 ERR649026     PG063-N     PG063   normal   
## # ... with 47 more rows
```
…
