…
```r
load( "oscc.rda" )
```

We have data for 57 samples (19 patients x 3 tissue samples per patient), with the metadata in `sampleTable`:


```r
sampleTable
```

```
## # A tibble: 57 x 4
##    run_accession sample_name patient tissue   
##    <chr>         <chr>       <chr>   <fct>    
##  1 ERR649059     PG004-N     PG004   normal   
##  2 ERR649060     PG004-D     PG004   dysplasia
##  3 ERR649061     PG004-T     PG004   tumour   
##  4 ERR649035     PG038-N     PG038   normal   
##  5 ERR649018     PG038-D     PG038   dysplasia
##  6 ERR649025     PG038-T     PG038   tumour   
##  7 ERR649022     PG049-N     PG049   normal   
##  8 ERR649021     PG049-D     PG049   dysplasia
##  9 ERR649020     PG049-T     PG049   tumour   
## 10 ERR649026     PG063-N     PG063   normal   
## # ... with 47 more rows
```
…
